## Title: aScript
## Interface: 20501
## Author: apexz (https://gitlab.com/apexz)
## Version: 1.0.4

## Notes: Modifications for Blizzards standard UI.
## Notes-deDE: Modifikationen für das Blizzard Standard Interface.

core.lua
